…
``` r
attendance_df <- attendance_joined %>%
  filter(!is.na(weekly_attendance)) %>%
  select(
    weekly_attendance, team_name, year, week,
    margin_of_victory, strength_of_schedule, playoffs
  )

attendance_df
```

    ## # A tibble: 10,208 x 7
    ##    weekly_attendan… team_name  year  week margin_of_victo… strength_of_sch…
    ##               <dbl> <fct>     <dbl> <dbl>            <dbl>            <dbl>
    ##  1            77434 Cardinals  2000     1            -14.6             -0.7
    ##  2            66009 Cardinals  2000     2            -14.6             -0.7
    ##  3            71801 Cardinals  2000     4            -14.6             -0.7
    ##  4            66985 Cardinals  2000     5            -14.6             -0.7
    ##  5            44296 Cardinals  2000     6            -14.6             -0.7
    ##  6            38293 Cardinals  2000     7            -14.6             -0.7
    ##  7            62981 Cardinals  2000     8            -14.6             -0.7
    ##  8            35286 Cardinals  2000     9            -14.6             -0.7
    ##  9            52244 Cardinals  2000    10            -14.6             -0.7
    ## 10            64223 Cardinals  2000    11            -14.6             -0.7
    ## # … with 10,198 more rows, and 1 more variable: playoffs <fct>
…
